{
  "formatVersion": 1,
  "database": {
    "version": 20,
    "identityHash": "a89427f842222fc3fa40b7d343f50d75",
    "entities": [
      {
        "tableName": "user_table",
        "createSql": "CREATE TABLE IF NOT EXISTS `${TABLE_NAME}` (`id` TEXT NOT NULL, `userlang` TEXT, `gamelang` TEXT, `points` INTEGER NOT NULL, PRIMARY KEY(`id`))",
        "fields": [
          {
            "fieldPath": "id",
            "columnName": "id",
            "affinity": "TEXT",
            "notNull": true
          },
          {
            "fieldPath": "userlang",
            "columnName": "userlang",
            "affinity": "TEXT",
            "notNull": false
          },
          {
            "fieldPath": "gamelang",
            "columnName": "gamelang",
            "affinity": "TEXT",
            "notNull": false
          },
          {
            "fieldPath": "points",
            "columnName": "points",
            "affinity": "INTEGER",
            "notNull": true
          }
        ],
        "primaryKey": {
          "columnNames": [
            "id"
          ],
          "autoGenerate": false
        },
        "indices": [],
        "foreignKeys": []
      },
      {
        "tableName": "pronunciation_table",
        "createSql": "CREATE TABLE IF NOT EXISTS `${TABLE_NAME}` (`id` INTEGER PRIMARY KEY AUTOINCREMENT NOT NULL, `server_id` INTEGER NOT NULL, `ipa` TEXT, `lexeme` TEXT, `recording` TEXT, `uploaded` INTEGER NOT NULL, `language` TEXT, `skipped` INTEGER)",
        "fields": [
          {
            "fieldPath": "id",
            "columnName": "id",
            "affinity": "INTEGER",
            "notNull": true
          },
          {
            "fieldPath": "server_id",
            "columnName": "server_id",
            "affinity": "INTEGER",
            "notNull": true
          },
          {
            "fieldPath": "ipa",
            "columnName": "ipa",
            "affinity": "TEXT",
            "notNull": false
          },
          {
            "fieldPath": "lexeme",
            "columnName": "lexeme",
            "affinity": "TEXT",
            "notNull": false
          },
          {
            "fieldPath": "recording",
            "columnName": "recording",
            "affinity": "TEXT",
            "notNull": false
          },
          {
            "fieldPath": "uploaded",
            "columnName": "uploaded",
            "affinity": "INTEGER",
            "notNull": true
          },
          {
            "fieldPath": "language",
            "columnName": "language",
            "affinity": "TEXT",
            "notNull": false
          },
          {
            "fieldPath": "skipped",
            "columnName": "skipped",
            "affinity": "INTEGER",
            "notNull": false
          }
        ],
        "primaryKey": {
          "columnNames": [
            "id"
          ],
          "autoGenerate": true
        },
        "indices": [
          {
            "name": "index_pronunciation_table_server_id",
            "unique": true,
            "columnNames": [
              "server_id"
            ],
            "orders": [],
            "createSql": "CREATE UNIQUE INDEX IF NOT EXISTS `index_pronunciation_table_server_id` ON `${TABLE_NAME}` (`server_id`)"
          }
        ],
        "foreignKeys": []
      },
      {
        "tableName": "spelling_table",
        "createSql": "CREATE TABLE IF NOT EXISTS `${TABLE_NAME}` (`id` INTEGER PRIMARY KEY AUTOINCREMENT NOT NULL, `uploaded` INTEGER NOT NULL, `serverid` INTEGER NOT NULL, `recording` TEXT, `correctionrec` TEXT, `corrected` INTEGER, `lexeme` TEXT, `ipa` TEXT, `language` TEXT, `inputs` TEXT, `skipped` INTEGER, `status` TEXT)",
        "fields": [
          {
            "fieldPath": "id",
            "columnName": "id",
            "affinity": "INTEGER",
            "notNull": true
          },
          {
            "fieldPath": "uploaded",
            "columnName": "uploaded",
            "affinity": "INTEGER",
            "notNull": true
          },
          {
            "fieldPath": "serverid",
            "columnName": "serverid",
            "affinity": "INTEGER",
            "notNull": true
          },
          {
            "fieldPath": "recording",
            "columnName": "recording",
            "affinity": "TEXT",
            "notNull": false
          },
          {
            "fieldPath": "correctionrec",
            "columnName": "correctionrec",
            "affinity": "TEXT",
            "notNull": false
          },
          {
            "fieldPath": "corrected",
            "columnName": "corrected",
            "affinity": "INTEGER",
            "notNull": false
          },
          {
            "fieldPath": "lexeme",
            "columnName": "lexeme",
            "affinity": "TEXT",
            "notNull": false
          },
          {
            "fieldPath": "ipa",
            "columnName": "ipa",
            "affinity": "TEXT",
            "notNull": false
          },
          {
            "fieldPath": "language",
            "columnName": "language",
            "affinity": "TEXT",
            "notNull": false
          },
          {
            "fieldPath": "inputs",
            "columnName": "inputs",
            "affinity": "TEXT",
            "notNull": false
          },
          {
            "fieldPath": "skipped",
            "columnName": "skipped",
            "affinity": "INTEGER",
            "notNull": false
          },
          {
            "fieldPath": "status",
            "columnName": "status",
            "affinity": "TEXT",
            "notNull": false
          }
        ],
        "primaryKey": {
          "columnNames": [
            "id"
          ],
          "autoGenerate": true
        },
        "indices": [],
        "foreignKeys": []
      }
    ],
    "views": [],
    "setupQueries": [
      "CREATE TABLE IF NOT EXISTS room_master_table (id INTEGER PRIMARY KEY,identity_hash TEXT)",
      "INSERT OR REPLACE INTO room_master_table (id,identity_hash) VALUES(42, 'a89427f842222fc3fa40b7d343f50d75')"
    ]
  }
}